^C:\Users\MAJC89\Documents\Development\heroes3.5_repo\_Plugins_\new_war_machines\Project1\Project1.vcxproj
C:\Users\MAJC89\Documents\Development\heroes3.5_repo\_Plugins_\new_war_machines\Project1\Release\Knightmare War Machines.lib
C:\Users\MAJC89\Documents\Development\heroes3.5_repo\_Plugins_\new_war_machines\Project1\Release\Knightmare War Machines.exp
^C:\Users\MAJC89\Documents\Development\heroes3.5_repo\_Plugins_\new_war_machines\Project1\Project1.vcxproj
C:\Users\MAJC89\Documents\Development\heroes3.5_repo\_Plugins_\new_war_machines\Project1\Release\Knightmare War Machines.lib
C:\Users\MAJC89\Documents\Development\heroes3.5_repo\_Plugins_\new_war_machines\Project1\Release\Knightmare War Machines.exp
^C:\Users\MAJC89\Documents\Development\heroes3.5_repo\_Plugins_\new_war_machines\Project1\Project1.vcxproj
C:\Users\MAJC89\Documents\Development\heroes3.5_repo\_Plugins_\new_war_machines\Project1\Release\Knightmare War Machines.lib
C:\Users\MAJC89\Documents\Development\heroes3.5_repo\_Plugins_\new_war_machines\Project1\Release\Knightmare War Machines.exp
^C:\Users\MAJC89\Documents\Development\heroes3.5_repo\_Plugins_\new_war_machines\Project1\Project1.vcxproj
C:\Users\MAJC89\Documents\Development\heroes3.5_repo\_Plugins_\new_war_machines\Project1\Release\Knightmare War Machines.lib
C:\Users\MAJC89\Documents\Development\heroes3.5_repo\_Plugins_\new_war_machines\Project1\Release\Knightmare War Machines.exp
^C:\Users\MAJC89\Documents\Development\heroes3.5_repo\_Plugins_\new_war_machines\Project1\Project1.vcxproj
C:\Users\MAJC89\Documents\Development\heroes3.5_repo\_Plugins_\new_war_machines\Project1\Release\Knightmare War Machines.lib
C:\Users\MAJC89\Documents\Development\heroes3.5_repo\_Plugins_\new_war_machines\Project1\Release\Knightmare War Machines.exp
^C:\Users\MAJC89\Documents\Development\heroes3.5_repo\_Plugins_\new_war_machines\Project1\Project1.vcxproj
C:\Users\MAJC89\Documents\Development\heroes3.5_repo\_Plugins_\new_war_machines\Project1\Release\Knightmare War Machines.lib
C:\Users\MAJC89\Documents\Development\heroes3.5_repo\_Plugins_\new_war_machines\Project1\Release\Knightmare War Machines.exp
^C:\Users\MAJC89\Documents\Development\heroes3.5_repo\_Plugins_\new_war_machines\Project1\Project1.vcxproj
C:\Users\MAJC89\Documents\Development\heroes3.5_repo\_Plugins_\new_war_machines\Project1\Release\Knightmare War Machines.lib
C:\Users\MAJC89\Documents\Development\heroes3.5_repo\_Plugins_\new_war_machines\Project1\Release\Knightmare War Machines.exp
^C:\Users\MAJC89\Documents\Development\heroes3.5_repo\_Plugins_\new_war_machines\Project1\Project1.vcxproj
C:\Users\MAJC89\Documents\Development\heroes3.5_repo\_Plugins_\new_war_machines\Project1\Release\Knightmare War Machines.lib
C:\Users\MAJC89\Documents\Development\heroes3.5_repo\_Plugins_\new_war_machines\Project1\Release\Knightmare War Machines.exp
^C:\Users\MAJC89\Documents\Development\heroes3.5_repo\_Plugins_\new_war_machines\Project1\Project1.vcxproj
C:\Users\MAJC89\Documents\Development\heroes3.5_repo\_Plugins_\new_war_machines\Project1\Release\Knightmare War Machines.lib
C:\Users\MAJC89\Documents\Development\heroes3.5_repo\_Plugins_\new_war_machines\Project1\Release\Knightmare War Machines.exp
^C:\Users\MAJC89\Documents\Development\heroes3.5_repo\_Plugins_\new_war_machines\Project1\Project1.vcxproj
C:\Users\MAJC89\Documents\Development\heroes3.5_repo\_Plugins_\new_war_machines\Project1\Release\Knightmare War Machines.lib
C:\Users\MAJC89\Documents\Development\heroes3.5_repo\_Plugins_\new_war_machines\Project1\Release\Knightmare War Machines.exp
^C:\Users\MAJC89\Documents\Development\heroes3.5_repo\_Plugins_\new_war_machines\Project1\Project1.vcxproj
C:\Users\MAJC89\Documents\Development\heroes3.5_repo\_Plugins_\new_war_machines\Project1\Release\Knightmare War Machines.lib
C:\Users\MAJC89\Documents\Development\heroes3.5_repo\_Plugins_\new_war_machines\Project1\Release\Knightmare War Machines.exp
^C:\Users\MAJC89\Documents\Development\heroes3.5_repo\_Plugins_\new_war_machines\Project1\Project1.vcxproj
C:\Users\MAJC89\Documents\Development\heroes3.5_repo\_Plugins_\new_war_machines\Project1\Release\Knightmare War Machines.lib
C:\Users\MAJC89\Documents\Development\heroes3.5_repo\_Plugins_\new_war_machines\Project1\Release\Knightmare War Machines.exp
^C:\Users\MAJC89\Documents\Development\heroes3.5_repo\_Plugins_\new_war_machines\Project1\Project1.vcxproj
C:\Users\MAJC89\Documents\Development\heroes3.5_repo\_Plugins_\new_war_machines\Project1\Release\Knightmare War Machines.lib
C:\Users\MAJC89\Documents\Development\heroes3.5_repo\_Plugins_\new_war_machines\Project1\Release\Knightmare War Machines.exp
^C:\Users\MAJC89\Documents\Development\heroes3.5_repo\_Plugins_\new_war_machines\Project1\Project1.vcxproj
C:\Users\MAJC89\Documents\Development\heroes3.5_repo\_Plugins_\new_war_machines\Project1\Release\Knightmare War Machines.lib
C:\Users\MAJC89\Documents\Development\heroes3.5_repo\_Plugins_\new_war_machines\Project1\Release\Knightmare War Machines.exp
^C:\Users\MAJC89\Documents\Development\heroes3.5_repo\_Plugins_\new_war_machines\Project1\Project1.vcxproj
C:\Users\MAJC89\Documents\Development\heroes3.5_repo\_Plugins_\new_war_machines\Project1\Release\Knightmare War Machines.lib
C:\Users\MAJC89\Documents\Development\heroes3.5_repo\_Plugins_\new_war_machines\Project1\Release\Knightmare War Machines.exp
^C:\Users\MAJC89\Documents\Development\heroes3.5_repo\_Plugins_\new_war_machines\Project1\Project1.vcxproj
C:\Users\MAJC89\Documents\Development\heroes3.5_repo\_Plugins_\new_war_machines\Project1\Release\Knightmare War Machines.lib
C:\Users\MAJC89\Documents\Development\heroes3.5_repo\_Plugins_\new_war_machines\Project1\Release\Knightmare War Machines.exp
^C:\Users\MAJC89\Documents\Development\heroes3.5_repo\_Plugins_\new_war_machines\Project1\Project1.vcxproj
C:\Users\MAJC89\Documents\Development\heroes3.5_repo\_Plugins_\new_war_machines\Project1\Release\Knightmare War Machines.lib
C:\Users\MAJC89\Documents\Development\heroes3.5_repo\_Plugins_\new_war_machines\Project1\Release\Knightmare War Machines.exp
^C:\Users\MAJC89\Documents\Development\heroes3.5_repo\_Plugins_\new_war_machines\Project1\Project1.vcxproj
C:\Users\MAJC89\Documents\Development\heroes3.5_repo\_Plugins_\new_war_machines\Project1\Release\Knightmare War Machines.lib
C:\Users\MAJC89\Documents\Development\heroes3.5_repo\_Plugins_\new_war_machines\Project1\Release\Knightmare War Machines.exp
