					
					
	#	99	-1	-1	552	480	3	-1		-1
Name	Edit	1	40	400	400	44	Skirmish Name	BigFont.fnt	Enter name of skirmish.
Ok	Button	30722	456	400	44	44	spellbook.def	2	Ok
	Pcx	88	24	24	480	360	skirmish.pcx	2048	
	#
