^C:\USERS\MAJC89\DROPBOX\WORKING CODE\HEROES3.5\_PLUGINS_\EMERALD3\EMERALD\DEBUG\CONFIG.OBJ|C:\USERS\MAJC89\DROPBOX\WORKING CODE\HEROES3.5\_PLUGINS_\EMERALD3\EMERALD\DEBUG\DLLMAIN.OBJ|C:\USERS\MAJC89\DROPBOX\WORKING CODE\HEROES3.5\_PLUGINS_\EMERALD3\EMERALD\DEBUG\DUPLICATE.OBJ|C:\USERS\MAJC89\DROPBOX\WORKING CODE\HEROES3.5\_PLUGINS_\EMERALD3\EMERALD\DEBUG\EMERALD.OBJ|C:\USERS\MAJC89\DROPBOX\WORKING CODE\HEROES3.5\_PLUGINS_\EMERALD3\EMERALD\DEBUG\EVENTS.OBJ|C:\USERS\MAJC89\DROPBOX\WORKING CODE\HEROES3.5\_PLUGINS_\EMERALD3\EMERALD\DEBUG\HEROES.OBJ|C:\USERS\MAJC89\DROPBOX\WORKING CODE\HEROES3.5\_PLUGINS_\EMERALD3\EMERALD\DEBUG\LUCKMORALE.OBJ|C:\USERS\MAJC89\DROPBOX\WORKING CODE\HEROES3.5\_PLUGINS_\EMERALD3\EMERALD\DEBUG\PROPERTIES.OBJ|C:\USERS\MAJC89\DROPBOX\WORKING CODE\HEROES3.5\_PLUGINS_\EMERALD3\EMERALD\DEBUG\RANDOM.OBJ|C:\USERS\MAJC89\DROPBOX\WORKING CODE\HEROES3.5\_PLUGINS_\EMERALD3\EMERALD\DEBUG\RESISTANCE.OBJ
C:\USERS\MAJC89\DROPBOX\WORKING CODE\HEROES3.5\_PLUGINS_\EMERALD3\DEBUG\EMERALD3.ILK
C:\USERS\MAJC89\DROPBOX\WORKING CODE\HEROES3.5\_PLUGINS_\EMERALD3\DEBUG\EMERALD3.ERA
C:\USERS\MAJC89\DROPBOX\WORKING CODE\HEROES3.5\_PLUGINS_\EMERALD3\DEBUG\EMERALD3.PDB
